<svg width="52" height="57" viewBox="0 0 52 57" fill="none" xmlns="http://www.w3.org/2000/svg">
<path fill-rule="evenodd" clip-rule="evenodd" d="M51.5041 38.339C51.2001 41.2 49.1441 44.989 46.8601 46.69C46.8601 46.69 43.5091 49.242 39.2451 51.794C34.9051 54.346 31.0981 56.047 31.0981 56.047C29.8791 56.666 28.1281 56.975 26.4531 56.975C24.7781 56.975 23.1021 56.666 21.8081 56.047C21.8081 56.047 17.9251 54.346 13.6611 51.794C9.47309 49.242 6.04609 46.69 6.04609 46.69C3.83809 44.912 1.70609 41.2 1.40109 38.339C1.40109 38.339 0.944092 34.008 0.944092 28.905C0.944092 23.801 1.40109 19.548 1.40109 19.548C1.70609 16.687 3.76209 12.975 6.04609 11.196C6.04609 11.196 9.39609 8.72201 13.6611 6.17001C18.0011 3.61801 21.8081 1.91701 21.8081 1.91701C23.0261 1.29801 24.7781 0.989014 26.4531 0.989014C28.1281 0.989014 29.8031 1.29801 31.0981 1.91701C31.0981 1.91701 34.9811 3.61801 39.2451 6.17001C43.4331 8.64501 46.8601 11.196 46.8601 11.196C49.0681 12.975 51.2001 16.687 51.5041 19.548C51.5041 19.548 51.9611 23.878 51.9611 28.982C51.9611 34.086 51.5041 38.339 51.5041 38.339ZM49.4481 28.827C49.4481 23.956 49.0681 19.78 49.0681 19.703C48.8391 17.537 47.0881 14.367 45.3371 13.052C45.3371 13.052 41.9861 10.5 37.9511 8.10301C33.8391 5.62901 30.1841 3.92801 30.1081 3.92801C29.1181 3.54101 27.7471 3.30901 26.3771 3.30901C25.0061 3.30901 23.6351 3.54101 22.6461 4.00501C22.6461 4.00501 18.8381 5.70601 14.8031 8.18101C10.7671 10.655 7.49309 13.13 7.41709 13.13C5.66509 14.444 3.91409 17.537 3.68609 19.78C3.68609 19.78 3.30509 24.033 3.30509 28.905C3.30509 33.776 3.68609 38.03 3.76209 38.03C3.99009 40.195 5.74109 43.365 7.49309 44.68C7.49309 44.68 10.8431 47.232 14.8791 49.629C18.9911 52.103 22.6461 53.805 22.7221 53.805C23.7121 54.191 25.0061 54.423 26.4531 54.423C27.8991 54.423 29.2701 54.191 30.1841 53.805C30.1841 53.805 33.9911 52.026 38.0271 49.629C42.0621 47.154 45.3371 44.68 45.4131 44.68C47.1641 43.365 48.9161 40.272 49.1441 38.03C49.1441 38.03 49.6011 33.776 49.4481 28.827ZM36.1931 43.015H17.8621C16.9221 43.015 16.1001 42.242 16.1001 41.289L16.0411 17.722C16.0411 14.985 18.1561 12.783 20.8001 12.723L33.6081 12.545C33.7841 12.545 33.9611 12.545 34.1371 12.664C34.6071 12.842 34.9011 13.319 34.9011 13.795V20.103H36.1931C37.1921 20.103 37.9561 20.877 37.9561 21.829V41.289C37.9561 42.242 37.1331 43.015 36.1931 43.015ZM32.5501 14.925L20.8591 15.104C19.5071 15.104 18.4501 16.235 18.4501 17.663C18.5091 19.032 19.5661 20.103 20.9761 20.103H32.5501V14.925ZM35.6061 22.424H20.9761C20.0951 22.424 19.2141 22.186 18.5091 21.769V40.575H35.6061V22.424ZM26.9191 24.471C29.6931 24.471 30.9561 26.486 30.9561 28.359C30.9561 29.079 30.9561 31.153 28.0691 32.361V32.847C28.0691 33.482 27.5541 33.998 26.9191 33.998C26.2841 33.998 25.7691 33.482 25.7691 32.847V31.553C25.7691 31.048 26.0991 30.602 26.5821 30.454C28.6561 29.82 28.6561 28.941 28.6561 28.359C28.6561 27.766 28.4301 26.771 26.9191 26.771C26.6271 26.771 25.7381 26.771 25.2811 28.1C25.0751 28.701 24.4181 29.022 23.8201 28.814C23.2201 28.608 22.9001 27.954 23.1061 27.353C23.7361 25.521 25.1251 24.471 26.9191 24.471ZM26.8911 35.347C27.7261 35.347 28.4031 36.024 28.4031 36.859C28.4031 37.695 27.7261 38.372 26.8911 38.372C26.0551 38.372 25.3781 37.695 25.3781 36.859C25.3781 36.024 26.0551 35.347 26.8911 35.347Z" fill="#0063B0"/>
</svg>
