<svg width="52" height="57" viewBox="0 0 52 57" fill="none" xmlns="http://www.w3.org/2000/svg">
<path fill-rule="evenodd" clip-rule="evenodd" d="M51.5041 38.339C51.2001 41.2 49.1441 44.989 46.8601 46.69C46.8601 46.69 43.5091 49.242 39.2451 51.794C34.9051 54.346 31.0981 56.047 31.0981 56.047C29.8791 56.666 28.1281 56.975 26.4531 56.975C24.7781 56.975 23.1021 56.666 21.8081 56.047C21.8081 56.047 17.9251 54.346 13.6601 51.794C9.47309 49.242 6.04609 46.69 6.04609 46.69C3.83809 44.912 1.70609 41.2 1.40109 38.339C1.40109 38.339 0.944092 34.008 0.944092 28.905C0.944092 23.801 1.40109 19.548 1.40109 19.548C1.70609 16.687 3.76209 12.975 6.04609 11.196C6.04609 11.196 9.39609 8.72201 13.6601 6.17001C18.0011 3.61801 21.8081 1.91701 21.8081 1.91701C23.0261 1.29801 24.7781 0.989014 26.4531 0.989014C28.1281 0.989014 29.8031 1.29801 31.0981 1.91701C31.0981 1.91701 34.9811 3.61801 39.2451 6.17001C43.4331 8.64501 46.8601 11.196 46.8601 11.196C49.0681 12.975 51.2001 16.687 51.5041 19.548C51.5041 19.548 51.9611 23.878 51.9611 28.982C51.9611 34.086 51.5041 38.339 51.5041 38.339ZM49.4491 28.827C49.4491 23.956 49.0681 19.78 49.0681 19.703C48.8391 17.537 47.0881 14.367 45.3371 13.052C45.3371 13.052 41.9861 10.5 37.9511 8.10301C33.8391 5.62901 30.1841 3.92801 30.1081 3.92801C29.1181 3.54101 27.7471 3.30901 26.3771 3.30901C25.0061 3.30901 23.6351 3.54101 22.6451 4.00501C22.6451 4.00501 18.8381 5.70601 14.8031 8.18101C10.7671 10.655 7.49309 13.13 7.41709 13.13C5.66509 14.444 3.91409 17.537 3.68509 19.78C3.68509 19.78 3.30509 24.033 3.30509 28.905C3.30509 33.776 3.68509 38.03 3.76209 38.03C3.99009 40.195 5.74109 43.365 7.49309 44.68C7.49309 44.68 10.8431 47.232 14.8791 49.629C18.9911 52.103 22.6451 53.805 22.7221 53.805C23.7121 54.191 25.0061 54.423 26.4531 54.423C27.9001 54.423 29.2701 54.191 30.1841 53.805C30.1841 53.805 33.9911 52.026 38.0271 49.629C42.0621 47.154 45.3371 44.68 45.4131 44.68C47.1641 43.365 48.9151 40.272 49.1441 38.03C49.1441 38.03 49.6011 33.776 49.4491 28.827ZM39.5131 37.24C38.9171 37.455 38.2561 37.147 38.0421 36.549C36.2211 31.514 31.4061 28.129 26.0501 28.109C26.0061 28.109 25.9661 28.122 25.9211 28.122C25.9021 28.122 25.8841 28.116 25.8641 28.116C20.5411 28.174 15.7671 31.549 13.9601 36.563C13.7911 37.032 13.3491 37.324 12.8771 37.324C12.7481 37.324 12.6161 37.301 12.4871 37.255C11.8901 37.04 11.5801 36.381 11.7961 35.784C13.4111 31.3 17.0351 27.923 21.4281 26.519C19.7561 25.188 18.6621 23.161 18.6621 20.862C18.6621 16.859 21.9191 13.603 25.9211 13.603C29.9241 13.603 33.1811 16.859 33.1811 20.862C33.1811 23.142 32.1041 25.154 30.4561 26.485C34.8981 27.864 38.5711 31.252 40.2041 35.768C40.4211 36.365 40.1111 37.024 39.5131 37.24ZM30.8811 20.862C30.8811 18.128 28.6561 15.903 25.9211 15.903C23.1871 15.903 20.9621 18.128 20.9621 20.862C20.9621 23.564 23.1371 25.76 25.8261 25.812C25.8851 25.811 25.9431 25.805 26.0021 25.805C26.0231 25.805 26.0421 25.807 26.0621 25.808C28.7301 25.731 30.8811 23.548 30.8811 20.862ZM18.6511 36.282L23.1431 40.633L30.8031 32.972C31.2521 32.523 31.9811 32.523 32.4301 32.972C32.8791 33.421 32.8791 34.15 32.4301 34.599L23.9681 43.06C23.7441 43.284 23.4501 43.397 23.1551 43.397C22.8671 43.397 22.5781 43.289 22.3551 43.073L17.0501 37.934C16.5941 37.492 16.5831 36.764 17.0241 36.308C17.4661 35.851 18.1941 35.841 18.6511 36.282Z" fill="#0063B0"/>
</svg>
