<svg width="53" height="64" viewBox="0 0 53 64" fill="none" xmlns="http://www.w3.org/2000/svg">
<path opacity="0.6" d="M34.8839 16.0946C34.1493 15.44 33.0937 15.4557 32.497 15.6443C32.9334 15.1947 33.4824 14.8668 34.0883 14.6938C34.3215 14.8508 34.5147 15.0589 34.6527 15.302C34.7907 15.545 34.8699 15.8163 34.8839 16.0946V16.0946ZM37.2284 13.3847C36.7457 10.7664 30.7439 12.4997 27.7231 11.3869C27.6647 12.1515 28.6513 13.3768 29.5982 13.8298C27.983 15.2541 26.5216 18.1264 26.2379 21.6349C25.9461 18.1264 24.4954 15.2541 22.8802 13.8298C23.8244 13.3768 24.8136 12.1515 24.7553 11.3869C21.7345 12.4997 15.7379 10.7612 15.2499 13.3873C15.1491 13.9424 15.4117 14.7881 15.6955 15.0316C15.7824 14.7919 15.937 14.5817 16.1409 14.4258C16.3448 14.2699 16.5897 14.1749 16.8465 14.1518C21.0741 13.5025 24.6041 20.1241 21.4189 22.7922C21.4084 22.801 21.401 22.8128 21.3976 22.8259C21.3943 22.8391 21.3951 22.8529 21.4001 22.8655C21.405 22.8782 21.4138 22.889 21.4253 22.8965C21.4367 22.904 21.4502 22.9078 21.464 22.9074H31.0118C31.0255 22.9078 31.039 22.904 31.0504 22.8965C31.0619 22.889 31.0707 22.8782 31.0756 22.8655C31.0806 22.8529 31.0814 22.8391 31.0781 22.8259C31.0747 22.8128 31.0673 22.801 31.0568 22.7922C27.8742 20.1163 31.399 13.4946 35.6265 14.1518C35.8839 14.1744 36.1293 14.2692 36.3337 14.4251C36.5382 14.581 36.6931 14.7915 36.7802 15.0316C37.064 14.7881 37.3266 13.9424 37.2258 13.3873L37.2284 13.3847ZM38.2548 7.36262C38.1806 7.1165 40.6577 7.10079 40.6577 8.68747C40.6577 9.73479 39.1751 10.2427 39.1751 11.3398C39.1897 11.5404 39.265 11.7321 39.3912 11.8899C39.5175 12.0477 39.689 12.1644 39.8833 12.2248C39.5014 10.4653 41.0794 11.3869 41.5064 11.7011C40.6577 9.34466 42.5673 9.34466 42.379 8.26331C42.2463 7.50663 40.5887 7.73965 39.992 7.34953C38.9311 6.66877 37.6661 4.01907 36.8359 6.66877C38.3848 8.12978 37.4831 10.2794 35.5098 10.2794C35.5021 10.3927 35.5021 10.5064 35.5098 10.6198C37.8676 10.515 38.6845 8.76602 38.2548 7.36262V7.36262ZM10.9136 11.7142C11.3406 11.3869 12.9213 10.4653 12.5394 12.2379C12.733 12.1767 12.9037 12.0598 13.0294 11.902C13.1552 11.7443 13.2302 11.5531 13.2449 11.3529C13.2449 10.2558 11.7623 9.75573 11.7623 8.70056C11.7623 7.12959 14.2421 7.12959 14.1652 7.37571C13.7382 8.77911 14.5551 10.5177 16.8969 10.6459C16.9059 10.5327 16.9059 10.4189 16.8969 10.3056C14.9317 10.3056 14.0326 8.15596 15.5708 6.69496C14.7407 4.04525 13.4809 6.69496 12.4148 7.37571C11.8154 7.7606 10.1578 7.53019 10.0278 8.28949C9.83949 9.37608 11.7464 9.36037 10.9004 11.7273L10.9136 11.7142ZM17.5679 16.0946C18.3026 15.44 19.3581 15.4557 19.9549 15.6443C19.5188 15.1942 18.9697 14.8663 18.3636 14.6938C18.1307 14.8511 17.9377 15.0593 17.7997 15.3023C17.6617 15.5453 17.5824 15.8164 17.5679 16.0946V16.0946ZM27.3544 1.41649L26.2113 0L25.0682 1.41649L26.2113 2.9063L27.3544 1.41649V1.41649ZM33.8788 5.69739L33.0672 4.69197L32.253 5.69739L33.0672 6.68187L33.8788 5.69739ZM40.472 34.7944L39.443 33.6947L38.4113 34.8023L39.443 35.7763L40.472 34.8023V34.7944ZM20.1564 5.69739L19.3608 4.69197L18.5466 5.69739L19.3608 6.68187L20.1564 5.69739ZM17.8384 10.6329H20.8699C23.4213 10.6329 24.567 9.04094 24.9144 7.66372H27.5082C27.8477 9.04094 29.0014 10.6329 31.5608 10.6329H34.5842C34.8382 10.2885 35.0601 9.9222 35.2473 9.53841C35.7247 8.22927 35.1147 7.62707 34.2209 7.62707L33.0672 8.69009L31.9135 7.62707C31.0197 7.62707 30.4071 8.23451 30.8871 9.53841C30.982 9.75717 31.0974 9.96668 31.2319 10.1642C30.5649 10.0872 29.9396 9.80383 29.4456 9.3547C28.9516 8.90557 28.6142 8.31367 28.4816 7.66372C28.8483 7.08198 29.1804 6.47963 29.4762 5.85972C30.1922 3.99289 29.2772 3.24144 27.9379 3.24144L26.2113 5.30727L24.4821 3.24144C23.156 3.24144 22.2278 4.00598 22.9465 5.87281C23.2422 6.49272 23.5743 7.09507 23.9411 7.67681C23.8084 8.32715 23.4705 8.91933 22.976 9.3685C22.4815 9.81767 21.8556 10.1008 21.1881 10.1773C21.3243 9.98034 21.4406 9.77076 21.5356 9.55151C22.013 8.24236 21.403 7.64016 20.5092 7.64016L19.3608 8.69009L18.2071 7.62707C17.3133 7.62707 16.7033 8.23451 17.1807 9.53841C17.3679 9.9222 17.5898 10.2885 17.8437 10.6329H17.8384ZM49.1871 20.1844C46.5744 21.4345 43.6465 21.8971 40.7691 21.5145C40.8142 21.3024 40.854 21.0877 40.8858 20.8704C43.8032 20.5143 46.1901 20.0116 47.7098 19.1528C49.4364 18.1761 50.1922 15.8406 49.3197 14.1047C49.3131 14.0955 49.3043 14.088 49.2942 14.0829C49.284 14.0777 49.2728 14.075 49.2613 14.075C49.2499 14.075 49.2387 14.0777 49.2285 14.0829C49.2184 14.088 49.2096 14.0955 49.203 14.1047C48.7256 14.6624 45.7207 17.985 40.9813 19.0192C40.968 18.7574 40.9468 18.5218 40.9123 18.273C43.2303 16.9377 45.4634 15.4086 46.5323 14.0104C48.1474 11.9001 47.9989 9.20589 46.4606 7.83129C46.4529 7.82429 46.4435 7.81922 46.4334 7.81649C46.4232 7.81376 46.4126 7.81345 46.4023 7.81558C46.3922 7.8171 46.3824 7.82068 46.3738 7.82608C46.3651 7.83149 46.3577 7.83861 46.3519 7.847C45.8666 8.66391 41.3128 16.147 36.3081 19.3675L36.1251 19.4853C36.0921 19.505 36.0641 19.532 36.0436 19.5643C36.023 19.5966 36.0104 19.6331 36.0068 19.6711C36.0032 19.709 36.0087 19.7473 36.0228 19.7828C36.0369 19.8183 36.0592 19.85 36.088 19.8754C36.3817 20.142 36.6163 20.4657 36.777 20.8262C36.9377 21.1867 37.0209 21.5762 37.0216 21.97C37.0116 22.6647 36.7546 23.3338 36.2955 23.8603C35.8364 24.3868 35.2043 24.7372 34.51 24.8502C33.5761 25.0022 32.6186 24.9202 31.7252 24.6119C31.7149 24.6081 31.7037 24.6069 31.6928 24.6082C31.6819 24.6095 31.6714 24.6135 31.6623 24.6196C31.6532 24.6258 31.6458 24.634 31.6406 24.6436C31.6353 24.6532 31.6325 24.6638 31.6324 24.6747V29.1939C31.6345 29.2089 31.6415 29.2228 31.6523 29.2335C31.663 29.2443 31.677 29.2514 31.6922 29.2537C31.7073 29.2561 31.7228 29.2535 31.7364 29.2465C31.75 29.2395 31.7609 29.2284 31.7676 29.2148C32.3803 27.5653 34.2156 27.2145 35.0165 27.2145C35.3056 28.9766 35.8122 30.4376 36.4911 31.2231C37.5812 32.5008 39.3634 32.4825 40.1352 31.6001C40.1396 31.5916 40.1419 31.5822 40.1419 31.5726C40.1419 31.563 40.1396 31.5536 40.1352 31.5451C40.1338 31.5357 40.1302 31.5268 40.1247 31.5191C40.1192 31.5114 40.1119 31.505 40.1034 31.5006C39.6499 31.2388 37.0534 29.6154 36.5336 26.9605C36.7395 26.8875 36.9398 26.8 37.133 26.6987C37.9711 28.1073 39.191 29.3641 40.1724 29.8406C41.822 30.6444 43.3311 30.2543 44.0021 29.0761C44.0075 29.0663 44.0103 29.0553 44.0102 29.0441C44.0102 29.033 44.0072 29.022 44.0016 29.0123C43.996 29.0026 43.988 28.9944 43.9784 28.9887C43.9687 28.9829 43.9577 28.9796 43.9464 28.9792C42.9253 28.8954 39.7957 27.9842 38.4617 25.7613C38.6209 25.6211 38.7723 25.4725 38.9152 25.3162C40.3103 26.3949 42.2835 27.348 43.6891 27.5444C45.3414 27.7722 47.2139 27.2354 47.2589 25.2822C47.2586 25.2729 47.2564 25.2638 47.2525 25.2553C47.2486 25.2469 47.243 25.2393 47.2361 25.2329C47.2292 25.2266 47.2211 25.2217 47.2123 25.2185C47.2035 25.2152 47.1941 25.2137 47.1847 25.2141C46.5959 25.2507 42.7078 25.4236 39.9363 23.8055C40.0318 23.6196 40.122 23.431 40.2015 23.2373C40.2015 23.2373 44.3893 24.2453 46.3731 23.9102C48.3569 23.575 49.5 22.0774 49.2905 20.2289C49.2892 20.2179 49.2852 20.2073 49.2789 20.1982C49.2726 20.1891 49.2641 20.1816 49.2541 20.1764C49.2442 20.1713 49.2331 20.1686 49.2219 20.1686C49.2107 20.1686 49.1996 20.1713 49.1897 20.1765L49.1871 20.1844ZM12.1999 23.2451C12.2848 23.4389 12.375 23.6274 12.4651 23.8133C9.69363 25.4288 5.80555 25.2586 5.21676 25.2219C5.20704 25.2212 5.19728 25.2225 5.1881 25.2257C5.17892 25.229 5.17055 25.2341 5.16353 25.2408C5.15652 25.2475 5.15101 25.2556 5.14739 25.2645C5.14376 25.2734 5.1421 25.283 5.1425 25.2926C5.18759 27.2433 7.06002 27.78 8.71232 27.5522C10.1233 27.3559 12.0965 26.4028 13.4862 25.3241C13.6268 25.4785 13.7727 25.6304 13.9265 25.7718C12.6004 27.9947 9.46289 28.9137 8.4418 28.9897C8.43073 28.9905 8.42005 28.9941 8.41073 29C8.40142 29.006 8.39377 29.0142 8.38849 29.0238C8.38321 29.0334 8.38047 29.0442 8.38052 29.0552C8.38056 29.0662 8.3834 29.0769 8.38876 29.0865C9.0571 30.2648 10.5688 30.6575 12.2185 29.8511C13.1998 29.3719 14.4198 28.1152 15.2579 26.7091C15.4507 26.8094 15.65 26.8969 15.8546 26.971C15.3242 29.6259 12.7383 31.2466 12.2848 31.5111C12.2767 31.5159 12.2697 31.5224 12.2642 31.53C12.2587 31.5377 12.2549 31.5464 12.253 31.5556C12.2463 31.5733 12.2463 31.5928 12.253 31.6106C13.0274 32.4929 14.807 32.5113 15.8997 31.2335C16.568 30.448 17.0826 28.987 17.3717 27.2249C18.1673 27.2249 20.0079 27.5758 20.6206 29.2253C20.6274 29.239 20.6386 29.2501 20.6524 29.2569C20.6662 29.2638 20.6819 29.2661 20.6971 29.2634C20.7123 29.2608 20.7263 29.2533 20.7369 29.2422C20.7474 29.2311 20.7541 29.2169 20.7558 29.2017V24.6695C20.7557 24.6586 20.7529 24.6479 20.7476 24.6383C20.7424 24.6287 20.735 24.6205 20.7259 24.6144C20.7168 24.6082 20.7063 24.6043 20.6954 24.603C20.6844 24.6016 20.6733 24.6029 20.663 24.6067C19.7702 24.9136 18.8139 24.9955 17.8809 24.8449C17.186 24.7325 16.5534 24.3824 16.0937 23.8558C15.634 23.3293 15.3766 22.6598 15.3666 21.9648C15.3671 21.5707 15.4506 21.1809 15.6117 20.8204C15.7729 20.4598 16.0083 20.1362 16.3028 19.8702C16.3316 19.8448 16.354 19.813 16.3681 19.7776C16.3822 19.7421 16.3876 19.7038 16.384 19.6659C16.3804 19.6279 16.3678 19.5913 16.3473 19.559C16.3267 19.5268 16.2988 19.4997 16.2657 19.48C16.202 19.4408 16.141 19.4041 16.08 19.3622C11.0807 16.1339 6.53224 8.65867 6.03628 7.84177C6.03115 7.83256 6.02393 7.82465 6.01518 7.81867C6.00643 7.81268 5.9964 7.80877 5.98587 7.80725C5.97533 7.80573 5.96459 7.80663 5.95447 7.8099C5.94435 7.81316 5.93514 7.81869 5.92754 7.82606C4.38929 9.19804 4.24077 11.8923 5.85859 14.0026C6.91946 15.4008 9.1738 16.9272 11.4732 18.2521C11.4414 18.5139 11.4175 18.7495 11.4069 18.9983C6.70463 17.985 3.71298 14.6572 3.21968 14.0942C3.21315 14.0845 3.20428 14.0765 3.19387 14.071C3.18346 14.0655 3.17182 14.0626 3.16001 14.0626C3.14819 14.0626 3.13656 14.0655 3.12614 14.071C3.11573 14.0765 3.10686 14.0845 3.10033 14.0942C2.23042 15.8302 2.98629 18.163 4.71285 19.1397C6.22989 19.9985 8.60889 20.5012 11.5369 20.8573C11.5661 21.0746 11.6058 21.2893 11.6509 21.5014C8.77567 21.8882 5.8487 21.4301 3.23559 20.1844C3.22568 20.1792 3.21463 20.1765 3.20341 20.1764C3.19218 20.1764 3.18113 20.1791 3.1712 20.1843C3.16127 20.1894 3.15276 20.1969 3.14642 20.2061C3.14008 20.2152 3.1361 20.2257 3.13481 20.2367C2.91733 22.0957 4.06572 23.5881 6.03628 23.918C8.00685 24.2479 12.1999 23.2451 12.1999 23.2451ZM39.435 37.1954L37.926 35.9752C37.3138 36.341 36.8718 36.9297 36.6954 37.6143C35.7777 37.7452 33.2741 37.1797 33.5128 36.8052C36.2551 32.8778 34.1572 30.5502 31.635 30.6811V33.3125C31.6246 33.7273 31.4483 34.1212 31.1447 34.4082C30.8411 34.6951 30.4348 34.8519 30.0145 34.8441H28.2721C27.0229 34.8441 26.2113 36.1193 26.2113 36.1193C26.2113 36.1193 25.3971 34.8441 24.1479 34.8441H22.4081C21.9879 34.8519 21.5816 34.6951 21.278 34.4082C20.9744 34.1212 20.7981 33.7273 20.7876 33.3125V30.6811C18.2681 30.5502 16.1676 32.8857 18.9099 36.8052C19.1513 37.177 16.5813 37.7688 15.3746 37.6195C15.2088 37.4458 15.0086 37.3075 14.7864 37.2134C14.5642 37.1193 14.3248 37.0712 14.083 37.0723C13.8645 37.0734 13.648 37.1133 13.4438 37.1901C13.4438 37.1901 8.70437 32.6291 8.61684 32.5846L8.65663 32.4929C8.92184 31.9693 8.51341 31.4194 8.25085 31.4456C8.55584 31.0764 8.56911 29.4557 6.88498 29.0892C6.93537 29.4138 6.95924 30.0789 6.95924 30.0789C6.95924 30.0789 5.65968 29.3641 5.00724 29.9794C4.43437 30.6706 5.23002 31.9221 5.23002 31.9221C5.23002 31.9221 4.56433 31.9379 4.23546 31.9221C4.71816 33.5795 6.33598 33.4617 6.68607 33.1344C6.6622 33.3962 7.24567 33.7733 7.74693 33.4722L7.96441 33.3674C8.00419 33.4172 12.6216 37.8526 12.6216 37.8526C12.3976 38.1852 12.3103 38.5897 12.3776 38.9837C12.4389 39.3113 12.5978 39.6134 12.834 39.8513C13.0703 40.0892 13.3731 40.252 13.7037 40.319C14.1502 40.4134 14.6163 40.3377 15.0086 40.1069L16.2286 41.2589C16.2846 41.3114 16.351 41.3519 16.4235 41.378C16.496 41.4041 16.5732 41.4153 16.6503 41.4108C16.7901 41.4027 16.9209 41.3403 17.0144 41.2373C17.1078 41.1343 17.1561 40.999 17.1489 40.861C17.1395 40.7377 17.0814 40.6229 16.9871 40.5415C16.9685 40.518 15.7432 39.3633 15.7432 39.3633C16.7537 38.6433 18.6367 38.1353 20.2015 38.1353C20.2588 38.1384 20.3159 38.1264 20.367 38.1007C20.4182 38.075 20.4615 38.0364 20.4927 37.9889C20.5239 37.9413 20.5419 37.8865 20.5448 37.83C20.5477 37.7734 20.5354 37.7171 20.5092 37.6667C19.801 35.936 21.3234 34.6818 22.8961 35.7029C23.583 36.1481 24.2806 37.0252 24.8083 38.4888C22.2225 39.125 18.9736 40.8767 18.3211 42.788C18.0559 43.5264 18.9046 44.5318 19.9124 44.736C19.9295 44.7425 19.9484 44.7425 19.9655 44.736C19.9732 44.731 19.9798 44.7245 19.9848 44.7168C19.9899 44.7092 19.9932 44.7005 19.9947 44.6915C20.5251 41.8376 23.5459 39.7168 25.1186 39.3476L25.2486 39.7089C23.5379 40.5311 21.8777 42.267 21.403 44.3302C21.1855 45.2754 22.2225 46.1263 23.0791 46.3594C23.0889 46.3621 23.0993 46.3627 23.1093 46.361C23.1194 46.3593 23.129 46.3555 23.1373 46.3497C23.1457 46.344 23.1527 46.3364 23.1577 46.3277C23.1628 46.3189 23.1659 46.3092 23.1666 46.2991C23.3284 43.6809 24.4636 41.4736 25.4767 40.4656C25.5059 40.662 25.5271 40.861 25.5403 41.06C25.5403 41.06 24.5007 44.0029 24.5007 46.1525C24.5007 47.1527 25.962 47.8492 26.1795 47.946C26.4447 47.8492 27.9087 47.1606 27.9087 46.1525C27.9087 44.0029 26.8691 41.06 26.8691 41.06C26.8691 40.861 26.9036 40.662 26.9327 40.4656C27.9485 41.4736 29.081 43.6887 29.2454 46.2965C29.2459 46.3065 29.2486 46.3163 29.2534 46.3251C29.2581 46.3339 29.2648 46.3416 29.2729 46.3476C29.281 46.3536 29.2904 46.3578 29.3003 46.3598C29.3102 46.3618 29.3204 46.3617 29.3303 46.3594C30.1896 46.1263 31.2239 45.2754 31.0065 44.3302C30.5317 42.267 28.8847 40.5311 27.1608 39.7089L27.2934 39.3476C28.8662 39.7089 31.8843 41.8376 32.4148 44.6915C32.4163 44.7005 32.4197 44.7091 32.4248 44.7168C32.4298 44.7245 32.4364 44.7311 32.444 44.7363C32.4517 44.7414 32.4604 44.7449 32.4694 44.7467C32.4785 44.7485 32.4879 44.7484 32.497 44.7465C33.5101 44.5423 34.3535 43.5369 34.0883 42.7985C33.4332 40.8872 30.1869 39.1329 27.6011 38.4993C28.1315 37.0357 28.8264 36.1585 29.5133 35.7134C31.0887 34.6923 32.611 35.9464 31.9002 37.6771C31.8739 37.7277 31.8616 37.7843 31.8646 37.8411C31.8676 37.8979 31.8858 37.953 31.9173 38.0006C31.9488 38.0482 31.9926 38.0867 32.0441 38.1122C32.0956 38.1377 32.153 38.1493 32.2105 38.1458C33.9769 38.1458 36.157 38.7951 37.0189 39.6644C37.3091 40.1022 37.7165 40.4519 38.196 40.6747C38.6754 40.8975 39.2081 40.9847 39.7347 40.9264C40.3618 40.8708 40.9514 40.6079 41.4082 40.1802C41.865 39.7525 42.1622 39.1852 42.2517 38.57C42.3108 38.0627 42.2198 37.5494 41.9896 37.0922C41.7594 36.635 41.4 36.2534 40.9547 35.9936L39.4297 37.2137L39.435 37.1954ZM28.1872 29.3405C28.7176 29.1363 29.5849 29.3012 29.5557 30.0972C29.5557 30.2805 29.7971 30.2805 29.8209 30.0972C29.9827 28.9033 29.1897 28.5603 28.3596 28.699C28.2562 28.288 28.1713 27.9293 28.0758 27.5732C27.9989 27.2852 27.9697 26.7458 28.2986 26.7458C28.4736 26.7458 28.4047 27.2485 28.3861 27.4632C28.3675 27.6779 28.4392 27.7695 28.5903 27.7748C28.6858 27.7748 28.8052 27.657 28.8741 27.5758C29.3489 27.0286 29.4602 26.1829 28.9033 25.7744C28.4365 25.4314 27.2696 25.6854 26.9486 26.175C26.8541 25.9484 26.7224 25.7388 26.5588 25.5545C26.45 25.4262 26.4209 25.3372 26.5588 25.2246C26.7123 25.1016 26.8128 24.9257 26.8399 24.7323C26.839 24.6803 26.8273 24.629 26.8055 24.5815C26.7838 24.5341 26.7525 24.4915 26.7135 24.4565C26.6745 24.4214 26.6287 24.3946 26.5788 24.3776C26.5289 24.3607 26.4761 24.354 26.4235 24.3579C26.3496 24.3576 26.2765 24.3726 26.2089 24.4018C26.1412 24.431 26.0804 24.4738 26.0305 24.5276C25.9806 24.5813 25.9425 24.6447 25.9189 24.7138C25.8952 24.7829 25.8864 24.8561 25.8931 24.9287C25.9024 25.0261 25.9361 25.1197 25.9912 25.201C25.7202 25.175 25.4468 25.1882 25.1796 25.2403L28.2429 33.7785C29.1181 33.3386 29.7626 32.6422 29.7626 31.896C29.7626 31.2597 28.8396 31.4718 28.3914 31.9667C28.2456 31.1602 28.1262 30.414 27.9777 29.6704C27.9405 29.4662 28.0413 29.3929 28.2031 29.3327L28.1872 29.3405ZM23.8695 23.5305L24.5139 25.3476C23.9623 25.4812 23.0765 25.8896 23.0765 26.429C23.0765 27.149 24.3283 27.6177 25.0523 27.5627C25.0355 27.6405 25.0376 27.7212 25.0583 27.7981C25.0791 27.8749 25.1179 27.9459 25.1717 28.0052C24.8395 28.0088 24.5167 28.115 24.2487 28.3089C23.8668 27.945 23.2648 27.8114 22.9783 28.034C22.6919 28.2565 22.684 28.6336 22.9783 29.0604C23.0937 29.1864 23.1619 29.3476 23.1715 29.5172C23.1812 29.6867 23.1317 29.8545 23.0314 29.9925C23.9039 29.9925 23.583 28.8378 23.9252 28.8378C23.8833 29.0969 23.9107 29.3622 24.0047 29.6076C24.0446 29.691 24.0615 29.7834 24.0535 29.8754C24.0456 29.9674 24.0132 30.0556 23.9596 30.1312C23.5191 30.877 23.2909 31.7265 23.2993 32.5898C23.0128 32.5898 22.8669 32.5165 22.9677 32.1185C23.0049 31.9719 22.9147 31.8567 22.7953 32.0478C22.6777 32.2604 22.6114 32.497 22.6017 32.739C22.6017 33.5874 23.5936 33.7576 23.9729 33.5769C25.0683 34.6556 27.2192 34.3624 27.9512 34.0063L24.1533 23.4284C24.1482 23.4075 24.1387 23.388 24.1254 23.371C24.1121 23.354 24.0953 23.3399 24.0761 23.3298C24.0569 23.3197 24.0358 23.3137 24.0141 23.3123C23.9924 23.3108 23.9706 23.3139 23.9502 23.3214C23.9298 23.3288 23.9113 23.3405 23.8958 23.3555C23.8803 23.3706 23.8682 23.3887 23.8603 23.4087C23.8524 23.4288 23.8489 23.4502 23.85 23.4716C23.8512 23.4931 23.8569 23.5141 23.8668 23.5332L23.8695 23.5305ZM23.7395 32.2337C23.6599 31.7991 24.2699 31.0214 25.0126 30.2726C24.8508 30.7596 24.9516 31.6027 25.2778 31.8933C24.7288 31.8933 24.0763 31.9981 23.7501 32.2337H23.7395Z" fill="#535B63"/>
<path opacity="0.6" d="M2.38695 54.8269L0.795651 50.3025H0.737303C0.779738 50.9781 0.803607 51.6117 0.803607 52.1929V54.8269H0V49.4045H1.281L2.806 53.7089L4.42117 49.4045H5.68625V54.8165H4.79512V51.0959C4.77589 50.8335 4.78835 50.5698 4.83225 50.3104L3.1826 54.8269H2.38695Z" fill="#535B63"/>
<path opacity="0.6" d="M7.85294 50.732V52.8267C7.85677 53.1871 7.83728 53.5474 7.7946 53.9054L9.87125 50.7268H10.948V54.8218H10.0993V52.2035C10.0879 52.0159 10.1004 51.8277 10.1365 51.6432L8.1049 54.8166H7.01221V50.732H7.85294ZM13.083 50.732V52.3737H15.035V50.732H15.9208V54.827H15.035V53.0597H13.083V54.827H12.2078V50.732H13.083ZM19.7506 50.732H20.716L19.008 52.701L20.8645 54.827H19.8911L18.093 52.7455V54.827H17.1806V50.732H18.0558V52.701L19.7506 50.732ZM25.2247 52.7664C25.2588 53.3379 25.0689 53.9005 24.6942 54.3374C24.5067 54.532 24.2781 54.6836 24.0246 54.7813C23.7712 54.879 23.4991 54.9206 23.2276 54.903C22.8684 54.9102 22.5142 54.8196 22.2038 54.6411C21.9068 54.4732 21.6682 54.2203 21.5196 53.9159C21.3518 53.5631 21.2683 53.177 21.2756 52.7874C21.2425 52.2224 21.4326 51.6668 21.806 51.2374C22.1985 50.8774 22.7144 50.6773 23.2501 50.6773C23.7858 50.6773 24.3017 50.8774 24.6942 51.2374C25.0577 51.6641 25.2469 52.2093 25.2247 52.7664V52.7664ZM22.2038 52.7664C22.2038 53.7143 22.5592 54.1986 23.2647 54.2222C23.9702 54.2458 24.3256 53.7483 24.3256 52.7664C24.3256 51.7846 23.9728 51.363 23.2647 51.363C23.1118 51.3526 22.9586 51.3805 22.8195 51.4441C22.6804 51.5077 22.5599 51.605 22.469 51.727C22.2805 52.0408 22.1883 52.4019 22.2038 52.7664V52.7664ZM28.6141 53.9892L28.6645 53.8138C28.768 53.442 28.8581 53.1592 28.9297 52.9628L29.858 50.732H31.0303V54.827H30.2054V51.5175L30.1391 51.7427C30.0621 52.0389 29.9664 52.3301 29.8527 52.6146L28.9456 54.7956H28.2826L27.3676 52.5701C27.233 52.2168 27.1205 51.8556 27.0308 51.4887V54.7956H26.2192V50.732H27.3835L28.2906 52.9131C28.4152 53.2665 28.524 53.6252 28.6141 53.9892V53.9892ZM33.9635 54.8846C33.6991 54.9033 33.4338 54.8638 33.1866 54.7692C32.9395 54.6746 32.7166 54.5272 32.534 54.3374C32.1819 53.8965 32.008 53.3423 32.046 52.7822C32.022 52.2267 32.203 51.6816 32.5552 51.2478C32.7463 51.0564 32.9769 50.9079 33.2314 50.8126C33.4859 50.7172 33.7583 50.6773 34.0299 50.6954C34.4353 50.6888 34.8373 50.7701 35.2074 50.9336L34.9422 51.6615C34.6517 51.5335 34.3396 51.4598 34.0219 51.4442C33.2846 51.4442 32.9451 51.9155 32.9451 52.8555C32.9184 53.2186 33.0114 53.5805 33.2103 53.8871C33.3045 54.0045 33.426 54.0977 33.5646 54.1588C33.7031 54.2199 33.8545 54.2471 34.006 54.2379C34.397 54.2388 34.7813 54.1377 35.1199 53.9447V54.6726C34.9631 54.7612 34.7943 54.8273 34.6186 54.8689C34.4013 54.8956 34.1819 54.9009 33.9635 54.8846V54.8846ZM39.6949 51.7794C39.6949 52.2585 39.4058 52.5648 38.8329 52.6512C39.1054 52.6637 39.3651 52.7692 39.5676 52.9497C39.6547 53.0308 39.7234 53.1292 39.7691 53.2384C39.8148 53.3477 39.8365 53.4652 39.8328 53.5834C39.8388 53.7574 39.8007 53.9303 39.722 54.0862C39.6432 54.2421 39.5264 54.3761 39.3819 54.4762C38.9894 54.7069 38.5358 54.8163 38.0797 54.7904H36.1039V50.732H38.0797C39.1485 50.732 39.6949 51.0803 39.6949 51.7794V51.7794ZM38.8091 51.85C38.8165 51.7798 38.8022 51.7089 38.7681 51.6468C38.734 51.5847 38.6818 51.5341 38.6181 51.5018C38.4385 51.4184 38.2407 51.3806 38.0426 51.3918H36.9817V52.3737H37.9153C38.1442 52.387 38.3733 52.3503 38.5863 52.2663C38.6607 52.2262 38.7215 52.1653 38.7611 52.0913C38.8007 52.0172 38.8174 51.9334 38.8091 51.85V51.85ZM38.9205 53.5676C38.9269 53.4823 38.908 53.397 38.8661 53.3221C38.8241 53.2473 38.761 53.1861 38.6844 53.1461C38.4667 53.0518 38.2295 53.0097 37.9922 53.023H36.9764V54.1568H38.0134C38.6181 54.1568 38.9205 53.9604 38.9205 53.5676V53.5676ZM41.1536 54.827H40.1643L41.3233 53.1461C41.0579 53.0867 40.8222 52.9367 40.6578 52.7226C40.4933 52.5085 40.4106 52.2441 40.4242 51.9757C40.4163 51.802 40.4502 51.6289 40.523 51.4705C40.5958 51.3121 40.7056 51.173 40.8433 51.0646C41.177 50.8289 41.5818 50.7117 41.9917 50.732H43.8774V54.827H42.9942V53.2561H42.1534L41.1536 54.827ZM41.257 51.9757C41.2513 52.0683 41.2707 52.1608 41.3131 52.2436C41.3555 52.3264 41.4194 52.3966 41.4984 52.447C41.6974 52.559 41.9246 52.6126 42.1534 52.6015H42.965V51.3866H42.0076C41.8091 51.374 41.612 51.4274 41.448 51.5385C41.3834 51.5913 41.3324 51.6584 41.2992 51.7344C41.266 51.8104 41.2516 51.8931 41.257 51.9757V51.9757ZM46.0521 52.3685C46.3551 52.3843 46.6581 52.3397 46.9433 52.2376C47.0272 52.2066 47.0994 52.1507 47.1497 52.0775C47.2001 52.0044 47.2262 51.9175 47.2244 51.8291C47.2244 51.494 46.9274 51.3264 46.3253 51.3264C45.9037 51.3286 45.4873 51.4177 45.1027 51.5882L44.8215 50.9494C45.3277 50.7511 45.8683 50.6524 46.4128 50.6587C46.8318 50.6334 47.2493 50.7289 47.6143 50.9336C47.7496 51.0193 47.8601 51.1381 47.935 51.2786C48.0098 51.419 48.0465 51.5762 48.0413 51.7348C48.0431 51.955 47.9632 52.1683 47.8165 52.3342C47.6699 52.5002 47.4668 52.6074 47.2456 52.6355C47.525 52.6843 47.7825 52.8169 47.9829 53.0152C48.1293 53.1847 48.2052 53.4027 48.1951 53.6252C48.1977 53.8054 48.1532 53.9833 48.0659 54.1415C47.9785 54.2997 47.8513 54.4331 47.6965 54.5286C47.2754 54.7716 46.7912 54.8873 46.3041 54.8611C45.799 54.8823 45.2954 54.7928 44.8295 54.5992V53.8714C45.2717 54.0859 45.7583 54.1961 46.251 54.1934C46.5313 54.2096 46.8114 54.1593 47.0679 54.0468C47.154 54.0068 47.2267 53.9435 47.2777 53.8642C47.3286 53.7849 47.3557 53.693 47.3557 53.5991C47.3557 53.5052 47.3286 53.4132 47.2777 53.3339C47.2267 53.2547 47.154 53.1913 47.0679 53.1513C46.7848 53.0408 46.4809 52.9916 46.1768 53.0073H45.6702V52.3528L46.0521 52.3685ZM50.0012 52.3685H51.0382C52.1972 52.3685 52.778 52.7612 52.778 53.5519C52.7895 53.7338 52.7551 53.9156 52.6778 54.081C52.6004 54.2465 52.4827 54.3904 52.3351 54.4998C51.9487 54.7414 51.4947 54.856 51.0382 54.827H49.1233V50.732H50.0012V52.3685ZM51.8949 53.5755C51.9022 53.489 51.8838 53.4023 51.8419 53.326C51.7999 53.2497 51.7363 53.1871 51.6588 53.1461C51.4481 53.0534 51.2182 53.0112 50.9878 53.023H50.0012V54.1568H51.0037C51.235 54.1712 51.4656 54.1184 51.6668 54.0049C51.737 53.9568 51.7945 53.8926 51.8342 53.8178C51.8739 53.7431 51.8947 53.6599 51.8949 53.5755V53.5755ZM16.8624 60.1395C16.8741 60.3828 16.829 60.6255 16.7306 60.8489C16.6322 61.0723 16.4831 61.2703 16.2948 61.4277C15.832 61.7528 15.2705 61.9117 14.7035 61.8781H14.1306V63.8994H13.2607V58.5214H14.8069C15.3534 58.4806 15.8975 58.6267 16.3478 58.9351C16.5204 59.0843 16.6564 59.2702 16.7455 59.4789C16.8346 59.6875 16.8746 59.9134 16.8624 60.1395V60.1395ZM14.1306 61.1423H14.6027C14.9574 61.1721 15.3126 61.0915 15.6185 60.9119C15.7254 60.8237 15.8097 60.7117 15.8645 60.5853C15.9194 60.4588 15.9432 60.3213 15.9341 60.184C15.9513 60.0492 15.934 59.9122 15.884 59.7856C15.834 59.6589 15.7528 59.5466 15.6477 59.4588C15.3777 59.2857 15.0552 59.2107 14.7353 59.2467H14.1147L14.1306 61.1423ZM21.5328 61.865C21.5703 62.4342 21.3863 62.9961 21.0183 63.436C20.828 63.6288 20.5977 63.7787 20.3431 63.8755C20.0886 63.9722 19.8159 64.0134 19.5437 63.9963C19.1834 63.9996 18.8285 63.9093 18.5147 63.7344C18.2202 63.5672 17.9815 63.3188 17.8278 63.0197C17.6667 62.6677 17.5861 62.2851 17.5917 61.899C17.5536 61.327 17.744 60.7631 18.1221 60.3281C18.3121 60.1354 18.5419 59.9856 18.796 59.8889C19.0501 59.7922 19.3223 59.7508 19.5941 59.7677C19.8594 59.7548 20.1242 59.7998 20.3699 59.8993C20.6156 59.9989 20.8361 60.1506 21.0157 60.3438C21.3788 60.7669 21.5639 61.3113 21.5328 61.865V61.865ZM18.52 61.865C18.52 62.8364 18.8754 63.3208 19.5808 63.3208C20.2863 63.3208 20.6417 62.8468 20.6417 61.865C20.6417 60.8831 20.2863 60.4616 19.5808 60.4616C19.4276 60.4489 19.2737 60.4757 19.1342 60.5395C18.9947 60.6034 18.8744 60.7019 18.7852 60.8255C18.5928 61.1377 18.5003 61.5 18.52 61.865V61.865ZM24.2221 63.991C23.9586 64.008 23.6944 63.9686 23.4477 63.8755C23.201 63.7824 22.9775 63.6378 22.7926 63.4517C22.4657 62.9914 22.2903 62.4429 22.2903 61.8807C22.2903 61.3185 22.4657 60.77 22.7926 60.3097C22.9846 60.1195 23.2154 59.9719 23.4696 59.8767C23.7239 59.7814 23.9958 59.7407 24.2672 59.7573C24.6754 59.7514 25.08 59.8336 25.4527 59.9982L25.1875 60.726C24.9115 60.598 24.6156 60.5166 24.3123 60.4852C23.575 60.4852 23.2514 60.9512 23.2514 61.8964C23.2247 62.2595 23.3178 62.6214 23.5167 62.928C23.6096 63.0423 23.7289 63.133 23.8645 63.1926C24.0001 63.2523 24.1482 63.2792 24.2964 63.271C24.6865 63.2731 25.0704 63.1747 25.4103 62.9856V63.7135C25.2567 63.8084 25.0868 63.875 24.909 63.9099C24.6844 63.965 24.4536 63.9922 24.2221 63.991V63.991ZM27.9962 63.991C27.7325 64.009 27.468 63.9701 27.2212 63.877C26.9743 63.7838 26.7509 63.6387 26.5666 63.4517C26.2397 62.9914 26.0643 62.4429 26.0643 61.8807C26.0643 61.3185 26.2397 60.77 26.5666 60.3097C26.7579 60.1193 26.9882 59.9715 27.2421 59.8763C27.4959 59.781 27.7675 59.7404 28.0386 59.7573C28.4468 59.7514 28.8514 59.8336 29.2241 59.9982L28.9589 60.726C28.6659 60.6036 28.3536 60.5319 28.036 60.514C27.3013 60.514 26.9751 60.98 26.9751 61.9252C26.966 62.2826 27.0718 62.6337 27.2774 62.928C27.3704 63.0423 27.4897 63.133 27.6253 63.1926C27.7609 63.2523 27.9089 63.2792 28.0572 63.271C28.4473 63.2731 28.8312 63.1747 29.1711 62.9856V63.7135C29.0175 63.8084 28.8476 63.875 28.6698 63.9099C28.4493 63.963 28.2232 63.9902 27.9962 63.991V63.991ZM30.9931 59.8227V61.9174C30.9971 62.2769 30.9776 62.6364 30.9348 62.9935L33.0114 59.8149H34.0882V63.9099H33.2395V61.2916C33.2279 61.104 33.2403 60.9157 33.2766 60.7313L31.2079 63.902H30.1471V59.8227H30.9931ZM36.1861 59.8227V61.9174C36.19 62.2769 36.1705 62.6364 36.1277 62.9935L38.2123 59.8149H39.2891V63.9099H38.4404V60.747L36.3717 63.9177H35.3612V59.8227H36.1861Z" fill="#535B63"/>
</svg>
